Network Data Visualisation and Analysis with R
…
cc_nodes <- cc_nodes %>% 
  rowid_to_column("id")

Create Edges List

To create an edge list, we need to deal with two ID columns instead of one. We also want to create a weight column that will note the amount of letters sent between each set of nodes.

edges <- cc_data %>%  
  group_by(last4ccnum, location, Day, Hour) %>%
  summarise(weight = n()) %>% 
  ungroup()

edges

# A tibble: 1,490 x 5
   last4ccnum location              Day  Hour weight
   <chr>      <chr>               <int> <int>  <int>
 1 1286       Abila Zacharo           6    13      1
 2 1286       Abila Zacharo           9    13      1
 3 1286       Abila Zacharo          13    13      1
 4 1286       Abila Zacharo          16    13      1
 5 1286       Ahaggo Museum          18    14      1
 6 1286       Brew've Been Served     6     8      1
 7 1286       Brew've Been Served     7     7      1
 8 1286       Brew've Been Served     8     8      1
 9 1286       Brew've Been Served     9     8      1
10 1286       Brew've Been Served    10     8      1
# ... with 1,480 more rows
…
cc_edges <- cc_edges %>% 
  left_join(cc_nodes, 
            by = c("location" = "label")) %>% 
  rename(to = id)

Reorder the columns to bring â€œfromâ€ and â€œtoâ€ to the left of the data frame

cc_edges <- select(cc_edges, from, to, 
                   Day, Hour, weight)
cc_edges

# A tibble: 1,490 x 5
    from    to   Day  Hour weight
   <int> <int> <int> <int>  <int>
 1    27    71     6    13      1
 2    27    71     9    13      1
 3    27    71    13    13      1
 4    27    71    16    13      1
 5    27    87    18    14      1
 6    27    56     6     8      1
 7    27    56     7     7      1
 8    27    56     8     8      1
 9    27    56     9     8      1
10    27    56    10     8      1
# ... with 1,480 more rows
…
